\relax 
\providecommand\hyper@newdestlabel[2]{}
\bbl@cs{beforestart}
\providecommand\HyperFirstAtBeginDocument{\AtBeginDocument}
\HyperFirstAtBeginDocument{\ifx\hyper@anchor\@undefined
\global\let\oldcontentsline\contentsline
\gdef\contentsline#1#2#3#4{\oldcontentsline{#1}{#2}{#3}}
\global\let\oldnewlabel\newlabel
\gdef\newlabel#1#2{\newlabelxx{#1}#2}
\gdef\newlabelxx#1#2#3#4#5#6{\oldnewlabel{#1}{{#2}{#3}}}
\AtEndDocument{\ifx\hyper@anchor\@undefined
\let\contentsline\oldcontentsline
\let\newlabel\oldnewlabel
\fi}
\fi}
\global\let\hyper@last\relax 
\gdef\HyperFirstAtBeginDocument#1{#1}
\providecommand\HyField@AuxAddToFields[1]{}
\providecommand\HyField@AuxAddToCoFields[2]{}
\babel@aux{english}{}
\newlabel{index::doc}{{}{1}{}{section*.2}{}}
\@writefile{toc}{\contentsline {chapter}{\numberline {1}Summary}{3}{chapter.1}\protected@file@percent }
\@writefile{lof}{\addvspace {10\p@ }}
\@writefile{lot}{\addvspace {10\p@ }}
\newlabel{index:summary}{{1}{3}{Summary}{chapter.1}{}}
\@writefile{toc}{\contentsline {chapter}{\numberline {2}Project Description}{5}{chapter.2}\protected@file@percent }
\@writefile{lof}{\addvspace {10\p@ }}
\@writefile{lot}{\addvspace {10\p@ }}
\newlabel{index:project-description}{{2}{5}{Project Description}{chapter.2}{}}
\@writefile{toc}{\contentsline {section}{\numberline {2.1}Use Case}{5}{section.2.1}\protected@file@percent }
\newlabel{chapters/project/use-case:use-case}{{2.1}{5}{Use Case}{section.2.1}{}}
\newlabel{chapters/project/use-case::doc}{{2.1}{5}{Use Case}{section.2.1}{}}
\@writefile{toc}{\contentsline {subsection}{\numberline {2.1.1}Problem Setting}{5}{subsection.2.1.1}\protected@file@percent }
\newlabel{chapters/project/use-case:problem-setting}{{2.1.1}{5}{Problem Setting}{subsection.2.1.1}{}}
\@writefile{toc}{\contentsline {subsection}{\numberline {2.1.2}Real\sphinxhyphen {}Life Value}{6}{subsection.2.1.2}\protected@file@percent }
\newlabel{chapters/project/use-case:real-life-value}{{2.1.2}{6}{Real\sphinxhyphen {}Life Value}{subsection.2.1.2}{}}
\@writefile{toc}{\contentsline {subsection}{\numberline {2.1.3}General Approach}{7}{subsection.2.1.3}\protected@file@percent }
\newlabel{chapters/project/use-case:general-approach}{{2.1.3}{7}{General Approach}{subsection.2.1.3}{}}
\@writefile{toc}{\contentsline {subsubsection}{Step 1: Identifying Packages}{7}{subsubsection*.3}\protected@file@percent }
\newlabel{chapters/project/use-case:step-1-identifying-packages}{{2.1.3}{7}{Step 1: Identifying Packages}{subsubsection*.3}{}}
\@writefile{toc}{\contentsline {subsubsection}{Step 2: Localizing and Categorizing Critical Areas}{8}{subsubsection*.4}\protected@file@percent }
\newlabel{chapters/project/use-case:step-2-localizing-and-categorizing-critical-areas}{{2.1.3}{8}{Step 2: Localizing and Categorizing Critical Areas}{subsubsection*.4}{}}
\@writefile{toc}{\contentsline {subsubsection}{Step 3: Interpretation and Warning Message}{9}{subsubsection*.5}\protected@file@percent }
\newlabel{chapters/project/use-case:step-3-interpretation-and-warning-message}{{2.1.3}{9}{Step 3: Interpretation and Warning Message}{subsubsection*.5}{}}
\@writefile{toc}{\contentsline {section}{\numberline {2.2}Collaboration}{10}{section.2.2}\protected@file@percent }
\newlabel{chapters/project/collaboration:collaboration}{{2.2}{10}{Collaboration}{section.2.2}{}}
\newlabel{chapters/project/collaboration::doc}{{2.2}{10}{Collaboration}{section.2.2}{}}
\@writefile{toc}{\contentsline {subsection}{\numberline {2.2.1}Our Team}{11}{subsection.2.2.1}\protected@file@percent }
\newlabel{chapters/project/collaboration:our-team}{{2.2.1}{11}{Our Team}{subsection.2.2.1}{}}
\@writefile{toc}{\contentsline {subsection}{\numberline {2.2.2}Co\sphinxhyphen {}Working Environment}{11}{subsection.2.2.2}\protected@file@percent }
\newlabel{chapters/project/collaboration:co-working-environment}{{2.2.2}{11}{Co\sphinxhyphen {}Working Environment}{subsection.2.2.2}{}}
\@writefile{toc}{\contentsline {section}{\numberline {2.3}Timeline}{12}{section.2.3}\protected@file@percent }
\newlabel{chapters/project/timeline:timeline}{{2.3}{12}{Timeline}{section.2.3}{}}
\newlabel{chapters/project/timeline::doc}{{2.3}{12}{Timeline}{section.2.3}{}}
\@writefile{toc}{\contentsline {subsection}{\numberline {2.3.1}Brief Timeline}{12}{subsection.2.3.1}\protected@file@percent }
\newlabel{chapters/project/timeline:brief-timeline}{{2.3.1}{12}{Brief Timeline}{subsection.2.3.1}{}}
\@writefile{toc}{\contentsline {subsection}{\numberline {2.3.2}Detailed Timeline}{12}{subsection.2.3.2}\protected@file@percent }
\newlabel{chapters/project/timeline:detailed-timeline}{{2.3.2}{12}{Detailed Timeline}{subsection.2.3.2}{}}
\@writefile{toc}{\contentsline {subsubsection}{April}{12}{subsubsection*.6}\protected@file@percent }
\newlabel{chapters/project/timeline:april}{{2.3.2}{12}{April}{subsubsection*.6}{}}
\@writefile{toc}{\contentsline {subsubsection}{May}{12}{subsubsection*.7}\protected@file@percent }
\newlabel{chapters/project/timeline:may}{{2.3.2}{12}{May}{subsubsection*.7}{}}
\@writefile{lof}{\contentsline {figure}{\numberline {2.1}{\ignorespaces Example of first test inference on the team mascot.}}{13}{figure.2.1}\protected@file@percent }
\newlabel{chapters/project/timeline:id1}{{2.1}{13}{Example of first test inference on the team mascot}{figure.2.1}{}}
\@writefile{toc}{\contentsline {subsubsection}{June}{14}{subsubsection*.8}\protected@file@percent }
\newlabel{chapters/project/timeline:june}{{2.3.2}{14}{June}{subsubsection*.8}{}}
\@writefile{toc}{\contentsline {subsubsection}{July}{14}{subsubsection*.9}\protected@file@percent }
\newlabel{chapters/project/timeline:july}{{2.3.2}{14}{July}{subsubsection*.9}{}}
\@writefile{toc}{\contentsline {section}{\numberline {2.4}Training Data Collection}{14}{section.2.4}\protected@file@percent }
\newlabel{chapters/project/training_data_collection:training-data-collection}{{2.4}{14}{Training Data Collection}{section.2.4}{}}
\newlabel{chapters/project/training_data_collection:sec-training-data-collection}{{2.4}{14}{Training Data Collection}{section.2.4}{}}
\newlabel{chapters/project/training_data_collection::doc}{{2.4}{14}{Training Data Collection}{section.2.4}{}}
\@writefile{toc}{\contentsline {subsection}{\numberline {2.4.1}Overall Information on the First Round of Training Data Collection}{15}{subsection.2.4.1}\protected@file@percent }
\newlabel{chapters/project/training_data_collection:overall-information-on-the-first-round-of-training-data-collection}{{2.4.1}{15}{Overall Information on the First Round of Training Data Collection}{subsection.2.4.1}{}}
\@writefile{lof}{\contentsline {figure}{\numberline {2.2}{\ignorespaces Example training image.}}{15}{figure.2.2}\protected@file@percent }
\newlabel{chapters/project/training_data_collection:id1}{{2.2}{15}{Example training image}{figure.2.2}{}}
\@writefile{toc}{\contentsline {subsection}{\numberline {2.4.2}Classes of Damages}{15}{subsection.2.4.2}\protected@file@percent }
\newlabel{chapters/project/training_data_collection:classes-of-damages}{{2.4.2}{15}{Classes of Damages}{subsection.2.4.2}{}}
\@writefile{lof}{\contentsline {figure}{\numberline {2.3}{\ignorespaces Box with a dent.}}{16}{figure.2.3}\protected@file@percent }
\newlabel{chapters/project/training_data_collection:id2}{{2.3}{16}{Box with a dent}{figure.2.3}{}}
\@writefile{lof}{\contentsline {figure}{\numberline {2.4}{\ignorespaces Box with a hole and damage from water.}}{16}{figure.2.4}\protected@file@percent }
\newlabel{chapters/project/training_data_collection:id3}{{2.4}{16}{Box with a hole and damage from water}{figure.2.4}{}}
\@writefile{toc}{\contentsline {subsection}{\numberline {2.4.3}Standards and Tools for Training Data Collection}{17}{subsection.2.4.3}\protected@file@percent }
\newlabel{chapters/project/training_data_collection:standards-and-tools-for-training-data-collection}{{2.4.3}{17}{Standards and Tools for Training Data Collection}{subsection.2.4.3}{}}
\@writefile{toc}{\contentsline {subsection}{\numberline {2.4.4}Image Annotation}{17}{subsection.2.4.4}\protected@file@percent }
\newlabel{chapters/project/training_data_collection:image-annotation}{{2.4.4}{17}{Image Annotation}{subsection.2.4.4}{}}
\@writefile{lof}{\contentsline {figure}{\numberline {2.5}{\ignorespaces Example of annotations of box and damages.}}{17}{figure.2.5}\protected@file@percent }
\newlabel{chapters/project/training_data_collection:id4}{{2.5}{17}{Example of annotations of box and damages}{figure.2.5}{}}
\@writefile{toc}{\contentsline {subsection}{\numberline {2.4.5}End of First Round of Training Data Collection}{17}{subsection.2.4.5}\protected@file@percent }
\newlabel{chapters/project/training_data_collection:end-of-first-round-of-training-data-collection}{{2.4.5}{17}{End of First Round of Training Data Collection}{subsection.2.4.5}{}}
\@writefile{toc}{\contentsline {subsection}{\numberline {2.4.6}Additional Phase of Training Data Collection in July}{18}{subsection.2.4.6}\protected@file@percent }
\newlabel{chapters/project/training_data_collection:additional-phase-of-training-data-collection-in-july}{{2.4.6}{18}{Additional Phase of Training Data Collection in July}{subsection.2.4.6}{}}
\newlabel{chapters/project/training_data_collection:sec-additional-training-data-collection}{{2.4.6}{18}{Additional Phase of Training Data Collection in July}{subsection.2.4.6}{}}
\@writefile{toc}{\contentsline {section}{\numberline {2.5}Data Augmentation}{18}{section.2.5}\protected@file@percent }
\newlabel{chapters/project/augmentation:data-augmentation}{{2.5}{18}{Data Augmentation}{section.2.5}{}}
\newlabel{chapters/project/augmentation:sec-data-augmentation}{{2.5}{18}{Data Augmentation}{section.2.5}{}}
\newlabel{chapters/project/augmentation::doc}{{2.5}{18}{Data Augmentation}{section.2.5}{}}
\@writefile{toc}{\contentsline {subsection}{\numberline {2.5.1}Scientific Inspiration}{18}{subsection.2.5.1}\protected@file@percent }
\newlabel{chapters/project/augmentation:scientific-inspiration}{{2.5.1}{18}{Scientific Inspiration}{subsection.2.5.1}{}}
\@writefile{toc}{\contentsline {subsection}{\numberline {2.5.2}Augmentation Script}{18}{subsection.2.5.2}\protected@file@percent }
\newlabel{chapters/project/augmentation:augmentation-script}{{2.5.2}{18}{Augmentation Script}{subsection.2.5.2}{}}
\@writefile{toc}{\contentsline {subsection}{\numberline {2.5.3}Result}{19}{subsection.2.5.3}\protected@file@percent }
\newlabel{chapters/project/augmentation:result}{{2.5.3}{19}{Result}{subsection.2.5.3}{}}
\@writefile{lof}{\contentsline {figure}{\numberline {2.6}{\ignorespaces Example augmented images.}}{19}{figure.2.6}\protected@file@percent }
\newlabel{chapters/project/augmentation:id1}{{2.6}{19}{Example augmented images}{figure.2.6}{}}
\@writefile{toc}{\contentsline {subsection}{\numberline {2.5.4}Side Notes}{20}{subsection.2.5.4}\protected@file@percent }
\newlabel{chapters/project/augmentation:side-notes}{{2.5.4}{20}{Side Notes}{subsection.2.5.4}{}}
\@writefile{toc}{\contentsline {section}{\numberline {2.6}Model Comparison and Choice for the Project}{20}{section.2.6}\protected@file@percent }
\newlabel{chapters/project/model-comparison-and-choice:model-comparison-and-choice-for-the-project}{{2.6}{20}{Model Comparison and Choice for the Project}{section.2.6}{}}
\newlabel{chapters/project/model-comparison-and-choice::doc}{{2.6}{20}{Model Comparison and Choice for the Project}{section.2.6}{}}
\@writefile{toc}{\contentsline {subsection}{\numberline {2.6.1}Two\sphinxhyphen {}Stage Detectors}{20}{subsection.2.6.1}\protected@file@percent }
\newlabel{chapters/project/model-comparison-and-choice:two-stage-detectors}{{2.6.1}{20}{Two\sphinxhyphen {}Stage Detectors}{subsection.2.6.1}{}}
\@writefile{toc}{\contentsline {subsection}{\numberline {2.6.2}One\sphinxhyphen {}Stage Detectors}{20}{subsection.2.6.2}\protected@file@percent }
\newlabel{chapters/project/model-comparison-and-choice:one-stage-detectors}{{2.6.2}{20}{One\sphinxhyphen {}Stage Detectors}{subsection.2.6.2}{}}
\@writefile{toc}{\contentsline {subsection}{\numberline {2.6.3}Comparison and Project Choice}{21}{subsection.2.6.3}\protected@file@percent }
\newlabel{chapters/project/model-comparison-and-choice:comparison-and-project-choice}{{2.6.3}{21}{Comparison and Project Choice}{subsection.2.6.3}{}}
\@writefile{toc}{\contentsline {section}{\numberline {2.7}Outlook \& Possible Enhancements}{21}{section.2.7}\protected@file@percent }
\newlabel{chapters/project/outlook:outlook-possible-enhancements}{{2.7}{21}{Outlook \& Possible Enhancements}{section.2.7}{}}
\newlabel{chapters/project/outlook::doc}{{2.7}{21}{Outlook \& Possible Enhancements}{section.2.7}{}}
\@writefile{toc}{\contentsline {subsection}{\numberline {2.7.1}Real\sphinxhyphen {}Life Insights and Fine\sphinxhyphen {}Tuning for Productive Environment}{21}{subsection.2.7.1}\protected@file@percent }
\newlabel{chapters/project/outlook:real-life-insights-and-fine-tuning-for-productive-environment}{{2.7.1}{21}{Real\sphinxhyphen {}Life Insights and Fine\sphinxhyphen {}Tuning for Productive Environment}{subsection.2.7.1}{}}
\@writefile{toc}{\contentsline {subsubsection}{Relevant Critical Properties}{21}{subsubsection*.10}\protected@file@percent }
\newlabel{chapters/project/outlook:relevant-critical-properties}{{2.7.1}{21}{Relevant Critical Properties}{subsubsection*.10}{}}
\@writefile{toc}{\contentsline {subsubsection}{Interpretation of Critical Properties}{21}{subsubsection*.11}\protected@file@percent }
\newlabel{chapters/project/outlook:interpretation-of-critical-properties}{{2.7.1}{21}{Interpretation of Critical Properties}{subsubsection*.11}{}}
\@writefile{toc}{\contentsline {subsection}{\numberline {2.7.2}Two\sphinxhyphen {}Stage Model Architecture}{22}{subsection.2.7.2}\protected@file@percent }
\newlabel{chapters/project/outlook:two-stage-model-architecture}{{2.7.2}{22}{Two\sphinxhyphen {}Stage Model Architecture}{subsection.2.7.2}{}}
\@writefile{toc}{\contentsline {subsection}{\numberline {2.7.3}Implementation of Polygon Labels \& Instance Segmentation}{22}{subsection.2.7.3}\protected@file@percent }
\newlabel{chapters/project/outlook:implementation-of-polygon-labels-instance-segmentation}{{2.7.3}{22}{Implementation of Polygon Labels \& Instance Segmentation}{subsection.2.7.3}{}}
\@writefile{toc}{\contentsline {subsection}{\numberline {2.7.4}Deployment: Integration into a Warehouse Management System (WMS)}{22}{subsection.2.7.4}\protected@file@percent }
\newlabel{chapters/project/outlook:deployment-integration-into-a-warehouse-management-system-wms}{{2.7.4}{22}{Deployment: Integration into a Warehouse Management System (WMS)}{subsection.2.7.4}{}}
\@writefile{toc}{\contentsline {section}{\numberline {2.8}Learnings}{23}{section.2.8}\protected@file@percent }
\newlabel{chapters/project/learnings:learnings}{{2.8}{23}{Learnings}{section.2.8}{}}
\newlabel{chapters/project/learnings::doc}{{2.8}{23}{Learnings}{section.2.8}{}}
\@writefile{toc}{\contentsline {subsection}{\numberline {2.8.1}Training Data Collection}{23}{subsection.2.8.1}\protected@file@percent }
\newlabel{chapters/project/learnings:training-data-collection}{{2.8.1}{23}{Training Data Collection}{subsection.2.8.1}{}}
\@writefile{toc}{\contentsline {subsection}{\numberline {2.8.2}Choice of Models and Training}{24}{subsection.2.8.2}\protected@file@percent }
\newlabel{chapters/project/learnings:choice-of-models-and-training}{{2.8.2}{24}{Choice of Models and Training}{subsection.2.8.2}{}}
\@writefile{toc}{\contentsline {subsection}{\numberline {2.8.3}Co\sphinxhyphen {}Working \& Communication}{24}{subsection.2.8.3}\protected@file@percent }
\newlabel{chapters/project/learnings:co-working-communication}{{2.8.3}{24}{Co\sphinxhyphen {}Working \& Communication}{subsection.2.8.3}{}}
\@writefile{toc}{\contentsline {chapter}{\numberline {3}System Description}{25}{chapter.3}\protected@file@percent }
\@writefile{lof}{\addvspace {10\p@ }}
\@writefile{lot}{\addvspace {10\p@ }}
\newlabel{index:system-description}{{3}{25}{System Description}{chapter.3}{}}
\@writefile{toc}{\contentsline {section}{\numberline {3.1}Architecture Overview}{25}{section.3.1}\protected@file@percent }
\newlabel{chapters/architecture/architecture-overview:architecture-overview}{{3.1}{25}{Architecture Overview}{section.3.1}{}}
\newlabel{chapters/architecture/architecture-overview:arch-overview-reference}{{3.1}{25}{Architecture Overview}{section.3.1}{}}
\newlabel{chapters/architecture/architecture-overview::doc}{{3.1}{25}{Architecture Overview}{section.3.1}{}}
\@writefile{toc}{\contentsline {subsection}{\numberline {3.1.1}CI/CD Pipelines}{25}{subsection.3.1.1}\protected@file@percent }
\newlabel{chapters/architecture/ci:ci-cd-pipelines}{{3.1.1}{25}{CI/CD Pipelines}{subsection.3.1.1}{}}
\newlabel{chapters/architecture/ci:ci-reference}{{3.1.1}{25}{CI/CD Pipelines}{subsection.3.1.1}{}}
\newlabel{chapters/architecture/ci::doc}{{3.1.1}{25}{CI/CD Pipelines}{subsection.3.1.1}{}}
\@writefile{toc}{\contentsline {subsubsection}{GitLab Pipelines}{26}{subsubsection*.12}\protected@file@percent }
\newlabel{chapters/architecture/ci:gitlab-pipelines}{{3.1.1}{26}{GitLab Pipelines}{subsubsection*.12}{}}
\@writefile{toc}{\contentsline {paragraph}{Code Quality}{26}{paragraph*.13}\protected@file@percent }
\newlabel{chapters/architecture/ci:code-quality}{{3.1.1}{26}{Code Quality}{paragraph*.13}{}}
\@writefile{toc}{\contentsline {paragraph}{Coverage}{26}{paragraph*.14}\protected@file@percent }
\newlabel{chapters/architecture/ci:coverage}{{3.1.1}{26}{Coverage}{paragraph*.14}{}}
\@writefile{toc}{\contentsline {subsubsection}{Azure Pipeline}{26}{subsubsection*.15}\protected@file@percent }
\newlabel{chapters/architecture/ci:azure-pipeline}{{3.1.1}{26}{Azure Pipeline}{subsubsection*.15}{}}
\@writefile{toc}{\contentsline {subsection}{\numberline {3.1.2}Jetson}{27}{subsection.3.1.2}\protected@file@percent }
\newlabel{chapters/architecture/jetson:jetson}{{3.1.2}{27}{Jetson}{subsection.3.1.2}{}}
\newlabel{chapters/architecture/jetson::doc}{{3.1.2}{27}{Jetson}{subsection.3.1.2}{}}
\@writefile{toc}{\contentsline {subsubsection}{The Hardware}{27}{subsubsection*.17}\protected@file@percent }
\newlabel{chapters/architecture/jetson:the-hardware}{{3.1.2}{27}{The Hardware}{subsubsection*.17}{}}
\newlabel{0.1.1}{{1}{27}{Jetson}{section*.16}{}}
\@writefile{toc}{\contentsline {subsubsection}{Access for the Team}{28}{subsubsection*.18}\protected@file@percent }
\newlabel{chapters/architecture/jetson:access-for-the-team}{{3.1.2}{28}{Access for the Team}{subsubsection*.18}{}}
\@writefile{toc}{\contentsline {subsubsection}{Software Deployment}{28}{subsubsection*.19}\protected@file@percent }
\newlabel{chapters/architecture/jetson:software-deployment}{{3.1.2}{28}{Software Deployment}{subsubsection*.19}{}}
\@writefile{toc}{\contentsline {subsubsection}{Model Deployment}{28}{subsubsection*.20}\protected@file@percent }
\newlabel{chapters/architecture/jetson:model-deployment}{{3.1.2}{28}{Model Deployment}{subsubsection*.20}{}}
\newlabel{chapters/architecture/jetson:sec-jetson-deployment}{{3.1.2}{28}{Model Deployment}{subsubsection*.20}{}}
\@writefile{toc}{\contentsline {subsection}{\numberline {3.1.3}Azure}{29}{subsection.3.1.3}\protected@file@percent }
\newlabel{chapters/architecture/azure:azure}{{3.1.3}{29}{Azure}{subsection.3.1.3}{}}
\newlabel{chapters/architecture/azure::doc}{{3.1.3}{29}{Azure}{subsection.3.1.3}{}}
\@writefile{toc}{\contentsline {subsubsection}{Container Registry}{29}{subsubsection*.21}\protected@file@percent }
\newlabel{chapters/architecture/azure:container-registry}{{3.1.3}{29}{Container Registry}{subsubsection*.21}{}}
\@writefile{toc}{\contentsline {subsubsection}{File Share}{30}{subsubsection*.22}\protected@file@percent }
\newlabel{chapters/architecture/azure:file-share}{{3.1.3}{30}{File Share}{subsubsection*.22}{}}
\@writefile{toc}{\contentsline {subsubsection}{Container Instances}{30}{subsubsection*.23}\protected@file@percent }
\newlabel{chapters/architecture/azure:container-instances}{{3.1.3}{30}{Container Instances}{subsubsection*.23}{}}
\newlabel{chapters/architecture/azure:sec-azure}{{3.1.3}{30}{Container Instances}{subsubsection*.23}{}}
\@writefile{toc}{\contentsline {subsubsection}{Kubernetes}{30}{subsubsection*.24}\protected@file@percent }
\newlabel{chapters/architecture/azure:kubernetes}{{3.1.3}{30}{Kubernetes}{subsubsection*.24}{}}
\@writefile{toc}{\contentsline {section}{\numberline {3.2}Object Detection}{30}{section.3.2}\protected@file@percent }
\newlabel{chapters/architecture/object-detection:object-detection}{{3.2}{30}{Object Detection}{section.3.2}{}}
\newlabel{chapters/architecture/object-detection::doc}{{3.2}{30}{Object Detection}{section.3.2}{}}
\@writefile{toc}{\contentsline {subsection}{\numberline {3.2.1}YOLO and Darknet}{31}{subsection.3.2.1}\protected@file@percent }
\newlabel{chapters/architecture/yolo:yolo-and-darknet}{{3.2.1}{31}{YOLO and Darknet}{subsection.3.2.1}{}}
\newlabel{chapters/architecture/yolo::doc}{{3.2.1}{31}{YOLO and Darknet}{subsection.3.2.1}{}}
\@writefile{toc}{\contentsline {subsubsection}{Installation}{31}{subsubsection*.25}\protected@file@percent }
\newlabel{chapters/architecture/yolo:installation}{{3.2.1}{31}{Installation}{subsubsection*.25}{}}
\@writefile{toc}{\contentsline {subsubsection}{Training Configuration}{31}{subsubsection*.26}\protected@file@percent }
\newlabel{chapters/architecture/yolo:training-configuration}{{3.2.1}{31}{Training Configuration}{subsubsection*.26}{}}
\@writefile{toc}{\contentsline {subsubsection}{Updating Labels}{32}{subsubsection*.27}\protected@file@percent }
\newlabel{chapters/architecture/yolo:updating-labels}{{3.2.1}{32}{Updating Labels}{subsubsection*.27}{}}
\@writefile{toc}{\contentsline {subsubsection}{Local Training}{32}{subsubsection*.28}\protected@file@percent }
\newlabel{chapters/architecture/yolo:local-training}{{3.2.1}{32}{Local Training}{subsubsection*.28}{}}
\@writefile{lof}{\contentsline {figure}{\numberline {3.1}{\ignorespaces The red line indicates the mAP. It requires the \sphinxcode {\sphinxupquote {\sphinxhyphen {}map}} flag to be set, as well as validation data to be provided.}}{32}{figure.3.1}\protected@file@percent }
\newlabel{chapters/architecture/yolo:id3}{{3.1}{32}{The red line indicates the mAP. It requires the \sphinxcode {\sphinxupquote {\sphinxhyphen {}map}} flag to be set, as well as validation data to be provided}{figure.3.1}{}}
\@writefile{toc}{\contentsline {subsubsection}{Training with Docker}{33}{subsubsection*.29}\protected@file@percent }
\newlabel{chapters/architecture/yolo:training-with-docker}{{3.2.1}{33}{Training with Docker}{subsubsection*.29}{}}
\@writefile{toc}{\contentsline {subsubsection}{Training in Azure}{33}{subsubsection*.30}\protected@file@percent }
\newlabel{chapters/architecture/yolo:training-in-azure}{{3.2.1}{33}{Training in Azure}{subsubsection*.30}{}}
\@writefile{toc}{\contentsline {subsubsection}{Used Models and Performance}{33}{subsubsection*.31}\protected@file@percent }
\newlabel{chapters/architecture/yolo:used-models-and-performance}{{3.2.1}{33}{Used Models and Performance}{subsubsection*.31}{}}
\@writefile{toc}{\contentsline {paragraph}{YOLOv4}{33}{paragraph*.32}\protected@file@percent }
\newlabel{chapters/architecture/yolo:yolov4}{{3.2.1}{33}{YOLOv4}{paragraph*.32}{}}
\newlabel{chapters/architecture/yolo:sec-yolo-models}{{3.2.1}{33}{YOLOv4}{paragraph*.32}{}}
\@writefile{toc}{\contentsline {paragraph}{YOLOv4\sphinxhyphen {}Tiny}{34}{paragraph*.33}\protected@file@percent }
\newlabel{chapters/architecture/yolo:yolov4-tiny}{{3.2.1}{34}{YOLOv4\sphinxhyphen {}Tiny}{paragraph*.33}{}}
\@writefile{toc}{\contentsline {subsection}{\numberline {3.2.2}Tensorflow Object Detection API}{34}{subsection.3.2.2}\protected@file@percent }
\newlabel{chapters/architecture/tf-api:tensorflow-object-detection-api}{{3.2.2}{34}{Tensorflow Object Detection API}{subsection.3.2.2}{}}
\newlabel{chapters/architecture/tf-api::doc}{{3.2.2}{34}{Tensorflow Object Detection API}{subsection.3.2.2}{}}
\@writefile{toc}{\contentsline {subsubsection}{Preperation}{34}{subsubsection*.34}\protected@file@percent }
\newlabel{chapters/architecture/tf-api:preperation}{{3.2.2}{34}{Preperation}{subsubsection*.34}{}}
\@writefile{toc}{\contentsline {subsubsection}{Training}{35}{subsubsection*.35}\protected@file@percent }
\newlabel{chapters/architecture/tf-api:training}{{3.2.2}{35}{Training}{subsubsection*.35}{}}
\@writefile{toc}{\contentsline {subsubsection}{Evaluation}{36}{subsubsection*.36}\protected@file@percent }
\newlabel{chapters/architecture/tf-api:evaluation}{{3.2.2}{36}{Evaluation}{subsubsection*.36}{}}
\@writefile{lof}{\contentsline {figure}{\numberline {3.2}{\ignorespaces The blue line indicates the mAP of the Model with a MobileNetv2 backbone and the green line of the Model with a ResNet backbone.}}{36}{figure.3.2}\protected@file@percent }
\newlabel{chapters/architecture/tf-api:id1}{{3.2}{36}{The blue line indicates the mAP of the Model with a MobileNetv2 backbone and the green line of the Model with a ResNet backbone}{figure.3.2}{}}
\@writefile{toc}{\contentsline {section}{\numberline {3.3}Code Overview}{37}{section.3.3}\protected@file@percent }
\newlabel{chapters/architecture/code-overview:code-overview}{{3.3}{37}{Code Overview}{section.3.3}{}}
\newlabel{chapters/architecture/code-overview::doc}{{3.3}{37}{Code Overview}{section.3.3}{}}
\@writefile{toc}{\contentsline {section}{\numberline {3.4}Subsequent Damage Handling}{38}{section.3.4}\protected@file@percent }
\newlabel{chapters/architecture/subsequent-damage-handling:subsequent-damage-handling}{{3.4}{38}{Subsequent Damage Handling}{section.3.4}{}}
\newlabel{chapters/architecture/subsequent-damage-handling::doc}{{3.4}{38}{Subsequent Damage Handling}{section.3.4}{}}
\@writefile{toc}{\contentsline {subsection}{\numberline {3.4.1}Description of Business Logic in the Software}{38}{subsection.3.4.1}\protected@file@percent }
\newlabel{chapters/architecture/subsequent-damage-handling:description-of-business-logic-in-the-software}{{3.4.1}{38}{Description of Business Logic in the Software}{subsection.3.4.1}{}}
\@writefile{toc}{\contentsline {subsection}{\numberline {3.4.2}Examples of Results}{38}{subsection.3.4.2}\protected@file@percent }
\newlabel{chapters/architecture/subsequent-damage-handling:examples-of-results}{{3.4.2}{38}{Examples of Results}{subsection.3.4.2}{}}
\@writefile{lof}{\contentsline {figure}{\numberline {3.3}{\ignorespaces Example of a preview notification}}{39}{figure.3.3}\protected@file@percent }
\newlabel{chapters/architecture/subsequent-damage-handling:id1}{{3.3}{39}{Example of a preview notification}{figure.3.3}{}}
\@writefile{toc}{\contentsline {chapter}{\numberline {4}Code Documentation}{41}{chapter.4}\protected@file@percent }
\@writefile{lof}{\addvspace {10\p@ }}
\@writefile{lot}{\addvspace {10\p@ }}
\newlabel{index:code-documentation}{{4}{41}{Code Documentation}{chapter.4}{}}
\@writefile{toc}{\contentsline {section}{\numberline {4.1}Inference}{41}{section.4.1}\protected@file@percent }
\newlabel{code-docs/aisscv.inference:inference}{{4.1}{41}{Inference}{section.4.1}{}}
\newlabel{code-docs/aisscv.inference::doc}{{4.1}{41}{Inference}{section.4.1}{}}
\@writefile{toc}{\contentsline {subsection}{\numberline {4.1.1}Camera module}{41}{subsection.4.1.1}\protected@file@percent }
\newlabel{code-docs/aisscv.inference:module-aisscv.inference.camera}{{4.1.1}{41}{Camera module}{subsection.4.1.1}{}}
\newlabel{code-docs/aisscv.inference:camera-module}{{4.1.1}{41}{Camera module}{subsection.4.1.1}{}}
\newlabel{code-docs/aisscv.inference:aisscv.inference.camera.Camera}{{4.1.1}{41}{Camera module}{section*.37}{}}
\newlabel{code-docs/aisscv.inference:aisscv.inference.camera.Camera.isOpened}{{4.1.1}{41}{Camera module}{section*.38}{}}
\newlabel{code-docs/aisscv.inference:aisscv.inference.camera.Camera.read}{{4.1.1}{41}{Camera module}{section*.39}{}}
\newlabel{code-docs/aisscv.inference:aisscv.inference.camera.Camera.release}{{4.1.1}{41}{Camera module}{section*.40}{}}
\newlabel{code-docs/aisscv.inference:aisscv.inference.camera.add_camera_args}{{4.1.1}{41}{Camera module}{section*.41}{}}
\newlabel{code-docs/aisscv.inference:aisscv.inference.camera.grab_img}{{4.1.1}{41}{Camera module}{section*.42}{}}
\newlabel{code-docs/aisscv.inference:aisscv.inference.camera.open_cam_gstr}{{4.1.1}{41}{Camera module}{section*.43}{}}
\newlabel{code-docs/aisscv.inference:aisscv.inference.camera.open_cam_onboard}{{4.1.1}{41}{Camera module}{section*.44}{}}
\newlabel{code-docs/aisscv.inference:aisscv.inference.camera.open_cam_rtsp}{{4.1.1}{41}{Camera module}{section*.45}{}}
\newlabel{code-docs/aisscv.inference:aisscv.inference.camera.open_cam_usb}{{4.1.1}{42}{Camera module}{section*.46}{}}
\@writefile{toc}{\contentsline {subsection}{\numberline {4.1.2}Control Loop module}{42}{subsection.4.1.2}\protected@file@percent }
\newlabel{code-docs/aisscv.inference:module-aisscv.inference.control_loop}{{4.1.2}{42}{Control Loop module}{subsection.4.1.2}{}}
\newlabel{code-docs/aisscv.inference:control-loop-module}{{4.1.2}{42}{Control Loop module}{subsection.4.1.2}{}}
\newlabel{code-docs/aisscv.inference:aisscv.inference.control_loop.loop_and_detect}{{4.1.2}{42}{Control Loop module}{section*.47}{}}
\newlabel{code-docs/aisscv.inference:aisscv.inference.control_loop.main}{{4.1.2}{42}{Control Loop module}{section*.48}{}}
\newlabel{code-docs/aisscv.inference:aisscv.inference.control_loop.notify}{{4.1.2}{42}{Control Loop module}{section*.49}{}}
\newlabel{code-docs/aisscv.inference:aisscv.inference.control_loop.parse_args}{{4.1.2}{42}{Control Loop module}{section*.50}{}}
\@writefile{toc}{\contentsline {subsection}{\numberline {4.1.3}Display module}{43}{subsection.4.1.3}\protected@file@percent }
\newlabel{code-docs/aisscv.inference:module-aisscv.inference.display}{{4.1.3}{43}{Display module}{subsection.4.1.3}{}}
\newlabel{code-docs/aisscv.inference:display-module}{{4.1.3}{43}{Display module}{subsection.4.1.3}{}}
\newlabel{code-docs/aisscv.inference:aisscv.inference.display.FpsCalculator}{{4.1.3}{43}{Display module}{section*.51}{}}
\newlabel{code-docs/aisscv.inference:aisscv.inference.display.FpsCalculator.reset}{{4.1.3}{43}{Display module}{section*.52}{}}
\newlabel{code-docs/aisscv.inference:aisscv.inference.display.FpsCalculator.update}{{4.1.3}{43}{Display module}{section*.53}{}}
\newlabel{code-docs/aisscv.inference:aisscv.inference.display.ScreenToggler}{{4.1.3}{43}{Display module}{section*.54}{}}
\newlabel{code-docs/aisscv.inference:aisscv.inference.display.ScreenToggler.toggle}{{4.1.3}{43}{Display module}{section*.55}{}}
\newlabel{code-docs/aisscv.inference:aisscv.inference.display.open_window}{{4.1.3}{43}{Display module}{section*.56}{}}
\newlabel{code-docs/aisscv.inference:aisscv.inference.display.set_display}{{4.1.3}{43}{Display module}{section*.57}{}}
\newlabel{code-docs/aisscv.inference:aisscv.inference.display.show_fps}{{4.1.3}{43}{Display module}{section*.58}{}}
\newlabel{code-docs/aisscv.inference:aisscv.inference.display.show_help_text}{{4.1.3}{43}{Display module}{section*.59}{}}
\@writefile{toc}{\contentsline {subsection}{\numberline {4.1.4}Model Interface}{43}{subsection.4.1.4}\protected@file@percent }
\newlabel{code-docs/aisscv.inference:module-aisscv.inference.model_interface}{{4.1.4}{43}{Model Interface}{subsection.4.1.4}{}}
\newlabel{code-docs/aisscv.inference:model-interface}{{4.1.4}{43}{Model Interface}{subsection.4.1.4}{}}
\newlabel{code-docs/aisscv.inference:aisscv.inference.model_interface.Model}{{4.1.4}{43}{Model Interface}{section*.60}{}}
\newlabel{code-docs/aisscv.inference:aisscv.inference.model_interface.Model.detect}{{4.1.4}{43}{Model Interface}{section*.61}{}}
\@writefile{toc}{\contentsline {subsection}{\numberline {4.1.5}SSD\sphinxhyphen {}TF module}{43}{subsection.4.1.5}\protected@file@percent }
\newlabel{code-docs/aisscv.inference:module-aisscv.inference.ssd_tf}{{4.1.5}{43}{SSD\sphinxhyphen {}TF module}{subsection.4.1.5}{}}
\newlabel{code-docs/aisscv.inference:ssd-tf-module}{{4.1.5}{43}{SSD\sphinxhyphen {}TF module}{subsection.4.1.5}{}}
\newlabel{code-docs/aisscv.inference:aisscv.inference.ssd_tf.TfSSD}{{4.1.5}{43}{SSD\sphinxhyphen {}TF module}{section*.62}{}}
\newlabel{code-docs/aisscv.inference:aisscv.inference.ssd_tf.TfSSD.detect}{{4.1.5}{43}{SSD\sphinxhyphen {}TF module}{section*.63}{}}
\@writefile{toc}{\contentsline {subsection}{\numberline {4.1.6}Visualization module}{44}{subsection.4.1.6}\protected@file@percent }
\newlabel{code-docs/aisscv.inference:module-aisscv.inference.visualization}{{4.1.6}{44}{Visualization module}{subsection.4.1.6}{}}
\newlabel{code-docs/aisscv.inference:visualization-module}{{4.1.6}{44}{Visualization module}{subsection.4.1.6}{}}
\newlabel{code-docs/aisscv.inference:aisscv.inference.visualization.BBoxVisualization}{{4.1.6}{44}{Visualization module}{section*.64}{}}
\newlabel{code-docs/aisscv.inference:aisscv.inference.visualization.BBoxVisualization.draw_bboxes}{{4.1.6}{44}{Visualization module}{section*.65}{}}
\newlabel{code-docs/aisscv.inference:aisscv.inference.visualization.draw_boxed_text}{{4.1.6}{44}{Visualization module}{section*.66}{}}
\newlabel{code-docs/aisscv.inference:aisscv.inference.visualization.gen_colors}{{4.1.6}{44}{Visualization module}{section*.67}{}}
\@writefile{toc}{\contentsline {subsection}{\numberline {4.1.7}Yolo module}{44}{subsection.4.1.7}\protected@file@percent }
\newlabel{code-docs/aisscv.inference:module-aisscv.inference.yolo_with_plugins}{{4.1.7}{44}{Yolo module}{subsection.4.1.7}{}}
\newlabel{code-docs/aisscv.inference:yolo-module}{{4.1.7}{44}{Yolo module}{subsection.4.1.7}{}}
\newlabel{code-docs/aisscv.inference:aisscv.inference.yolo_with_plugins.HostDeviceMem}{{4.1.7}{44}{Yolo module}{section*.68}{}}
\newlabel{code-docs/aisscv.inference:aisscv.inference.yolo_with_plugins.TrtYOLO}{{4.1.7}{44}{Yolo module}{section*.69}{}}
\newlabel{code-docs/aisscv.inference:aisscv.inference.yolo_with_plugins.TrtYOLO.detect}{{4.1.7}{44}{Yolo module}{section*.70}{}}
\newlabel{code-docs/aisscv.inference:aisscv.inference.yolo_with_plugins.allocate_buffers}{{4.1.7}{44}{Yolo module}{section*.71}{}}
\newlabel{code-docs/aisscv.inference:aisscv.inference.yolo_with_plugins.do_inference}{{4.1.7}{44}{Yolo module}{section*.72}{}}
\newlabel{code-docs/aisscv.inference:aisscv.inference.yolo_with_plugins.do_inference_v2}{{4.1.7}{44}{Yolo module}{section*.73}{}}
\newlabel{code-docs/aisscv.inference:aisscv.inference.yolo_with_plugins.get_input_shape}{{4.1.7}{44}{Yolo module}{section*.74}{}}
\newlabel{code-docs/aisscv.inference:aisscv.inference.yolo_with_plugins.load_plugin_layer}{{4.1.7}{45}{Yolo module}{section*.75}{}}
\@writefile{toc}{\contentsline {section}{\numberline {4.2}Augmentation}{45}{section.4.2}\protected@file@percent }
\newlabel{code-docs/aisscv.augmentation:augmentation}{{4.2}{45}{Augmentation}{section.4.2}{}}
\newlabel{code-docs/aisscv.augmentation::doc}{{4.2}{45}{Augmentation}{section.4.2}{}}
\@writefile{toc}{\contentsline {subsection}{\numberline {4.2.1}Augment Dataset module}{45}{subsection.4.2.1}\protected@file@percent }
\newlabel{code-docs/aisscv.augmentation:module-aisscv.augmentation.augment_dataset}{{4.2.1}{45}{Augment Dataset module}{subsection.4.2.1}{}}
\newlabel{code-docs/aisscv.augmentation:augment-dataset-module}{{4.2.1}{45}{Augment Dataset module}{subsection.4.2.1}{}}
\newlabel{code-docs/aisscv.augmentation:aisscv.augmentation.augment_dataset.augment_one}{{4.2.1}{45}{Augment Dataset module}{section*.76}{}}
\newlabel{code-docs/aisscv.augmentation:aisscv.augmentation.augment_dataset.create_augmented_dataset}{{4.2.1}{45}{Augment Dataset module}{section*.77}{}}
\newlabel{code-docs/aisscv.augmentation:aisscv.augmentation.augment_dataset.main}{{4.2.1}{46}{Augment Dataset module}{section*.78}{}}
\@writefile{toc}{\contentsline {subsection}{\numberline {4.2.2}Augment Dataset with damages module}{46}{subsection.4.2.2}\protected@file@percent }
\newlabel{code-docs/aisscv.augmentation:module-aisscv.augmentation.augment_dataset_with_damages}{{4.2.2}{46}{Augment Dataset with damages module}{subsection.4.2.2}{}}
\newlabel{code-docs/aisscv.augmentation:augment-dataset-with-damages-module}{{4.2.2}{46}{Augment Dataset with damages module}{subsection.4.2.2}{}}
\newlabel{code-docs/aisscv.augmentation:aisscv.augmentation.augment_dataset_with_damages.augment_one}{{4.2.2}{46}{Augment Dataset with damages module}{section*.79}{}}
\newlabel{code-docs/aisscv.augmentation:aisscv.augmentation.augment_dataset_with_damages.create_augmented_dataset}{{4.2.2}{46}{Augment Dataset with damages module}{section*.80}{}}
\@writefile{toc}{\contentsline {section}{\numberline {4.3}Utils}{47}{section.4.3}\protected@file@percent }
\newlabel{code-docs/aisscv.utils:utils}{{4.3}{47}{Utils}{section.4.3}{}}
\newlabel{code-docs/aisscv.utils:utils-reference}{{4.3}{47}{Utils}{section.4.3}{}}
\newlabel{code-docs/aisscv.utils::doc}{{4.3}{47}{Utils}{section.4.3}{}}
\@writefile{toc}{\contentsline {subsection}{\numberline {4.3.1}Crop\sphinxhyphen {}Resize module}{47}{subsection.4.3.1}\protected@file@percent }
\newlabel{code-docs/aisscv.utils:module-aisscv.utils.crop_resize}{{4.3.1}{47}{Crop\sphinxhyphen {}Resize module}{subsection.4.3.1}{}}
\newlabel{code-docs/aisscv.utils:crop-resize-module}{{4.3.1}{47}{Crop\sphinxhyphen {}Resize module}{subsection.4.3.1}{}}
\newlabel{code-docs/aisscv.utils:aisscv.utils.crop_resize.crop_resize}{{4.3.1}{47}{Crop\sphinxhyphen {}Resize module}{section*.81}{}}
\newlabel{code-docs/aisscv.utils:aisscv.utils.crop_resize.crop_resize_mp}{{4.3.1}{47}{Crop\sphinxhyphen {}Resize module}{section*.82}{}}
\newlabel{code-docs/aisscv.utils:aisscv.utils.crop_resize.main}{{4.3.1}{47}{Crop\sphinxhyphen {}Resize module}{section*.83}{}}
\@writefile{toc}{\contentsline {subsection}{\numberline {4.3.2}Label Helper module}{47}{subsection.4.3.2}\protected@file@percent }
\newlabel{code-docs/aisscv.utils:module-aisscv.utils.label_helper}{{4.3.2}{47}{Label Helper module}{subsection.4.3.2}{}}
\newlabel{code-docs/aisscv.utils:label-helper-module}{{4.3.2}{47}{Label Helper module}{subsection.4.3.2}{}}
\newlabel{code-docs/aisscv.utils:aisscv.utils.label_helper.add_bbox_to_image}{{4.3.2}{47}{Label Helper module}{section*.84}{}}
\newlabel{code-docs/aisscv.utils:aisscv.utils.label_helper.add_polygon_to_image}{{4.3.2}{47}{Label Helper module}{section*.85}{}}
\newlabel{code-docs/aisscv.utils:aisscv.utils.label_helper.demo}{{4.3.2}{47}{Label Helper module}{section*.86}{}}
\newlabel{code-docs/aisscv.utils:aisscv.utils.label_helper.resize_images_df}{{4.3.2}{48}{Label Helper module}{section*.87}{}}
\newlabel{code-docs/aisscv.utils:aisscv.utils.label_helper.visualize_labels}{{4.3.2}{48}{Label Helper module}{section*.88}{}}
\newlabel{code-docs/aisscv.utils:aisscv.utils.label_helper.write_to_pascal_voc}{{4.3.2}{48}{Label Helper module}{section*.89}{}}
\@writefile{toc}{\contentsline {subsection}{\numberline {4.3.3}Label Reader module}{49}{subsection.4.3.3}\protected@file@percent }
\newlabel{code-docs/aisscv.utils:module-aisscv.utils.label_reader}{{4.3.3}{49}{Label Reader module}{subsection.4.3.3}{}}
\newlabel{code-docs/aisscv.utils:label-reader-module}{{4.3.3}{49}{Label Reader module}{subsection.4.3.3}{}}
\newlabel{code-docs/aisscv.utils:aisscv.utils.label_reader.via_coco_to_df}{{4.3.3}{49}{Label Reader module}{section*.90}{}}
\newlabel{code-docs/aisscv.utils:aisscv.utils.label_reader.via_json_to_df}{{4.3.3}{49}{Label Reader module}{section*.91}{}}
\@writefile{toc}{\contentsline {subsection}{\numberline {4.3.4}Negative Examples module}{50}{subsection.4.3.4}\protected@file@percent }
\newlabel{code-docs/aisscv.utils:module-aisscv.utils.negative_examples}{{4.3.4}{50}{Negative Examples module}{subsection.4.3.4}{}}
\newlabel{code-docs/aisscv.utils:negative-examples-module}{{4.3.4}{50}{Negative Examples module}{subsection.4.3.4}{}}
\newlabel{code-docs/aisscv.utils:aisscv.utils.negative_examples.create_empty_labels}{{4.3.4}{50}{Negative Examples module}{section*.92}{}}
\newlabel{code-docs/aisscv.utils:aisscv.utils.negative_examples.main}{{4.3.4}{50}{Negative Examples module}{section*.93}{}}
\@writefile{toc}{\contentsline {subsection}{\numberline {4.3.5}Pascal\sphinxhyphen {}VOC to tf\sphinxhyphen {}record module}{50}{subsection.4.3.5}\protected@file@percent }
\newlabel{code-docs/aisscv.utils:module-aisscv.utils.pascal_voc_to_tfrecord}{{4.3.5}{50}{Pascal\sphinxhyphen {}VOC to tf\sphinxhyphen {}record module}{subsection.4.3.5}{}}
\newlabel{code-docs/aisscv.utils:pascal-voc-to-tf-record-module}{{4.3.5}{50}{Pascal\sphinxhyphen {}VOC to tf\sphinxhyphen {}record module}{subsection.4.3.5}{}}
\newlabel{code-docs/aisscv.utils:aisscv.utils.pascal_voc_to_tfrecord.class_text_to_int}{{4.3.5}{50}{Pascal\sphinxhyphen {}VOC to tf\sphinxhyphen {}record module}{section*.94}{}}
\newlabel{code-docs/aisscv.utils:aisscv.utils.pascal_voc_to_tfrecord.create_tf_example}{{4.3.5}{50}{Pascal\sphinxhyphen {}VOC to tf\sphinxhyphen {}record module}{section*.95}{}}
\newlabel{code-docs/aisscv.utils:aisscv.utils.pascal_voc_to_tfrecord.main}{{4.3.5}{50}{Pascal\sphinxhyphen {}VOC to tf\sphinxhyphen {}record module}{section*.96}{}}
\newlabel{code-docs/aisscv.utils:aisscv.utils.pascal_voc_to_tfrecord.parse_args}{{4.3.5}{50}{Pascal\sphinxhyphen {}VOC to tf\sphinxhyphen {}record module}{section*.97}{}}
\newlabel{code-docs/aisscv.utils:aisscv.utils.pascal_voc_to_tfrecord.split}{{4.3.5}{50}{Pascal\sphinxhyphen {}VOC to tf\sphinxhyphen {}record module}{section*.98}{}}
\newlabel{code-docs/aisscv.utils:aisscv.utils.pascal_voc_to_tfrecord.xml_to_csv}{{4.3.5}{50}{Pascal\sphinxhyphen {}VOC to tf\sphinxhyphen {}record module}{section*.99}{}}
\@writefile{toc}{\contentsline {subsection}{\numberline {4.3.6}Pascal\sphinxhyphen {}VOC to yolo module}{51}{subsection.4.3.6}\protected@file@percent }
\newlabel{code-docs/aisscv.utils:module-aisscv.utils.pascal_voc_to_yolo}{{4.3.6}{51}{Pascal\sphinxhyphen {}VOC to yolo module}{subsection.4.3.6}{}}
\newlabel{code-docs/aisscv.utils:pascal-voc-to-yolo-module}{{4.3.6}{51}{Pascal\sphinxhyphen {}VOC to yolo module}{subsection.4.3.6}{}}
\newlabel{code-docs/aisscv.utils:aisscv.utils.pascal_voc_to_yolo.change_train_txt_paths}{{4.3.6}{51}{Pascal\sphinxhyphen {}VOC to yolo module}{section*.100}{}}
\newlabel{code-docs/aisscv.utils:aisscv.utils.pascal_voc_to_yolo.convert}{{4.3.6}{51}{Pascal\sphinxhyphen {}VOC to yolo module}{section*.101}{}}
\newlabel{code-docs/aisscv.utils:aisscv.utils.pascal_voc_to_yolo.convert_annotations}{{4.3.6}{51}{Pascal\sphinxhyphen {}VOC to yolo module}{section*.102}{}}
\newlabel{code-docs/aisscv.utils:aisscv.utils.pascal_voc_to_yolo.create_obj_names}{{4.3.6}{51}{Pascal\sphinxhyphen {}VOC to yolo module}{section*.103}{}}
\newlabel{code-docs/aisscv.utils:aisscv.utils.pascal_voc_to_yolo.main}{{4.3.6}{51}{Pascal\sphinxhyphen {}VOC to yolo module}{section*.104}{}}
\newlabel{code-docs/aisscv.utils:aisscv.utils.pascal_voc_to_yolo.parse_args}{{4.3.6}{51}{Pascal\sphinxhyphen {}VOC to yolo module}{section*.105}{}}
\@writefile{toc}{\contentsline {subsection}{\numberline {4.3.7}Proto to Tensorboard module}{52}{subsection.4.3.7}\protected@file@percent }
\newlabel{code-docs/aisscv.utils:module-aisscv.utils.read_to_tensorboard}{{4.3.7}{52}{Proto to Tensorboard module}{subsection.4.3.7}{}}
\newlabel{code-docs/aisscv.utils:proto-to-tensorboard-module}{{4.3.7}{52}{Proto to Tensorboard module}{subsection.4.3.7}{}}
\newlabel{code-docs/aisscv.utils:aisscv.utils.read_to_tensorboard.import_to_tensorboard}{{4.3.7}{52}{Proto to Tensorboard module}{section*.106}{}}
\newlabel{code-docs/aisscv.utils:aisscv.utils.read_to_tensorboard.main}{{4.3.7}{52}{Proto to Tensorboard module}{section*.107}{}}
\@writefile{toc}{\contentsline {section}{\numberline {4.4}Unit Tests}{52}{section.4.4}\protected@file@percent }
\newlabel{code-docs/tests:unit-tests}{{4.4}{52}{Unit Tests}{section.4.4}{}}
\newlabel{code-docs/tests:test-reference}{{4.4}{52}{Unit Tests}{section.4.4}{}}
\newlabel{code-docs/tests::doc}{{4.4}{52}{Unit Tests}{section.4.4}{}}
\@writefile{toc}{\contentsline {subsection}{\numberline {4.4.1}Test module}{52}{subsection.4.4.1}\protected@file@percent }
\newlabel{code-docs/tests:module-tests.test_module}{{4.4.1}{52}{Test module}{subsection.4.4.1}{}}
\newlabel{code-docs/tests:test-module}{{4.4.1}{52}{Test module}{subsection.4.4.1}{}}
\newlabel{code-docs/tests:tests.test_module.test_augmentation}{{4.4.1}{52}{Test module}{section*.108}{}}
\newlabel{code-docs/tests:tests.test_module.test_augmentation_with_damages}{{4.4.1}{52}{Test module}{section*.109}{}}
\newlabel{code-docs/tests:tests.test_module.test_function}{{4.4.1}{52}{Test module}{section*.110}{}}
\newlabel{code-docs/tests:tests.test_module.test_helper}{{4.4.1}{52}{Test module}{section*.111}{}}
\newlabel{code-docs/tests:tests.test_module.test_pascal_conversion}{{4.4.1}{52}{Test module}{section*.112}{}}
\newlabel{code-docs/tests:tests.test_module.test_rescale}{{4.4.1}{52}{Test module}{section*.113}{}}
\newlabel{code-docs/tests:tests.test_module.test_yolo_conversion}{{4.4.1}{52}{Test module}{section*.114}{}}
\newlabel{code-docs/tests:tests.test_module.test_yolo_create_empty_labels}{{4.4.1}{52}{Test module}{section*.115}{}}
\@writefile{toc}{\contentsline {chapter}{Python Module Index}{53}{section*.116}\protected@file@percent }
\@writefile{toc}{\contentsline {chapter}{Index}{55}{section*.117}\protected@file@percent }
