classes = 2
train  = /training-data/2-class-docker-train/aisscv-train-2class.txt
valid  = /training-data/2-class-docker-train/aisscv-train-2class.txt
names = /training-data/2-class-docker-train/aisscv-2class.names
backup = /training-data/yolo-data/yolo-backup-weights/